<?xml version="1.0" encoding="UTF-8" standalone="no"?>
<!-- Created with Inkscape (http://www.inkscape.org/) -->

<svg
   xmlns:dc="http://purl.org/dc/elements/1.1/"
   xmlns:cc="http://creativecommons.org/ns#"
   xmlns:rdf="http://www.w3.org/1999/02/22-rdf-syntax-ns#"
   xmlns:svg="http://www.w3.org/2000/svg"
   xmlns="http://www.w3.org/2000/svg"
   xmlns:sodipodi="http://sodipodi.sourceforge.net/DTD/sodipodi-0.dtd"
   xmlns:inkscape="http://www.inkscape.org/namespaces/inkscape"
   width="15.525137mm"
   height="14.586264mm"
   viewBox="0 0 55.010328 51.683611"
   id="svg4502"
   version="1.1"
   inkscape:version="0.91 r13725"
   sodipodi:docname="heart.svg"
   style="enable-background:new">
  <defs
     id="defs4504">
    <filter
       inkscape:collect="always"
       style="color-interpolation-filters:sRGB"
       id="filter5165">
      <feBlend
         inkscape:collect="always"
         mode="multiply"
         in2="BackgroundImage"
         id="feBlend5167" />
    </filter>
    <filter
       inkscape:collect="always"
       style="color-interpolation-filters:sRGB"
       id="filter5220">
      <feBlend
         inkscape:collect="always"
         mode="multiply"
         in2="BackgroundImage"
         id="feBlend5222" />
    </filter>
  </defs>
  <sodipodi:namedview
     id="base"
     pagecolor="#ffffff"
     bordercolor="#666666"
     borderopacity="1.0"
     inkscape:pageopacity="0.0"
     inkscape:pageshadow="2"
     inkscape:zoom="5.6"
     inkscape:cx="-18.798731"
     inkscape:cy="19.254117"
     inkscape:document-units="px"
     inkscape:current-layer="layer1"
     showgrid="false"
     inkscape:window-width="1920"
     inkscape:window-height="1031"
     inkscape:window-x="0"
     inkscape:window-y="27"
     inkscape:window-maximized="1"
     fit-margin-top="0"
     fit-margin-left="0"
     fit-margin-right="0"
     fit-margin-bottom="0" />
  <metadata
     id="metadata4507">
    <rdf:RDF>
      <cc:Work
         rdf:about="">
        <dc:format>image/svg+xml</dc:format>
        <dc:type
           rdf:resource="http://purl.org/dc/dcmitype/StillImage" />
        <dc:title></dc:title>
      </cc:Work>
    </rdf:RDF>
  </metadata>
  <g
     inkscape:label="Ebene 1"
     inkscape:groupmode="layer"
     id="layer1"
     transform="translate(-1038.2995,-73.830813)">
    <path
       style="fill:#000000"
       d="m 1078.2285,73.833984 c -1.4978,0.04332 -2.5249,0.529756 -4.6133,1.761719 -3.8688,2.282376 -7.2011,6.398371 -7.2011,8.896485 0,0.840725 -0.4544,0.727022 -0.9453,-0.236329 -2.3137,-4.536981 -4.4872,-6.009005 -10.3047,-6.978515 -6.0229,-1.003734 -10.7283,0.662993 -13.8536,4.908203 -1.7646,2.396853 -2.0305,2.940765 -2.6464,5.400391 -0.6729,2.687184 -0.4299,5.664734 0.8593,10.544921 0.117,0.442782 1.2942,2.760451 2.3848,4.693361 1.0828,1.91915 3.3245,4.48086 4.4219,5.05469 0.4042,0.21134 2.0165,1.63882 3.584,3.17187 3.8776,3.79233 6.639,5.91391 10.205,7.83984 0.7999,0.43207 1.7695,1.06929 2.1524,1.41407 0.3829,0.34479 1.7743,1.32484 3.0937,2.17969 1.3193,0.85482 2.6646,1.80141 2.9883,2.10156 0.3236,0.30016 0.7949,0.63589 1.0488,0.74804 0.9224,0.40764 1.2972,0.21528 2.9649,-1.52734 2.4914,-2.60327 3.6443,-3.91764 3.6543,-4.16016 0,-0.11819 0.6108,-0.87662 1.3496,-1.68554 0.7389,-0.80891 1.3437,-1.56821 1.3437,-1.68555 0,-0.11734 0.3203,-0.53398 0.711,-0.92773 0.3906,-0.39375 1.0985,-1.26612 1.5742,-1.9375 0.4756,-0.67137 1.5042,-2.08926 2.2852,-3.15039 0.7811,-1.06112 1.7257,-2.37301 2.0996,-2.91602 0.374,-0.543 1.1306,-1.59668 1.6816,-2.3418 1.1059,-1.49564 3.033,-5.147994 3.043,-5.763669 0,-0.215646 0.6932,-2.036974 1.5351,-4.048828 1.4725,-3.518739 1.5348,-3.783327 1.6387,-6.931641 0.077,-2.350605 -0.01,-3.49261 -0.2969,-4.050781 -0.2235,-0.427437 -0.6405,-1.384453 -0.9258,-2.126953 -0.7379,-1.920069 -1.7093,-3.89805 -1.9179,-3.90625 -0.098,-0.0038 -0.7065,-0.481631 -1.3516,-1.0625 -1.7846,-1.606986 -4.1225,-2.537125 -7.6015,-3.023437 -0.9178,-0.128286 -1.6516,-0.216739 -2.2852,-0.246094 -0.2376,-0.01101 -0.4618,-0.014 -0.6758,-0.0078 z m -0.1269,2.251954 c 1.9616,0.0086 5.1378,0.509741 6.7832,1.068359 1.9487,0.661596 4.8966,2.548659 5.1191,3.277344 0.1008,0.33 0.642,1.548476 1.2031,2.708984 0.5611,1.160505 1.1026,2.805531 1.2032,3.654297 0.2012,1.699005 -0.4175,4.559242 -1.545,7.136719 -0.3609,0.825 -0.9037,2.107109 -1.205,2.849609 -1.4557,3.58704 -2.3837,5.30131 -4.7657,8.8125 -1.4193,2.09209 -2.58,3.92806 -2.58,4.08008 0,0.15202 -0.1861,0.38564 -0.4141,0.51758 -0.2279,0.13195 -0.8231,0.84734 -1.3223,1.58984 -0.4992,0.7425 -1.8736,2.43 -3.0547,3.75 -1.1811,1.32 -2.2958,2.70297 -2.4765,3.07422 -0.1808,0.37125 -0.4244,0.67578 -0.541,0.67578 -0.1166,0 -0.5878,0.57414 -1.0469,1.27539 -0.4591,0.70125 -1.3764,1.77969 -2.0391,2.39844 -0.6628,0.61875 -1.3649,1.125 -1.5605,1.125 -0.3374,0 -2.2442,-1.65125 -2.2442,-1.94336 0,-0.0759 0.2348,-0.0683 0.5235,0.0156 0.2888,0.0839 -0.2175,-0.20531 -1.125,-0.64257 -0.9075,-0.43726 -1.92,-1.03961 -2.25,-1.33985 -0.7751,-0.70517 -4.1366,-2.98739 -4.4024,-2.98828 -0.2846,-10e-4 -3.5689,-2.22092 -4.2968,-2.9043 -0.33,-0.30981 -1.0729,-0.89122 -1.6504,-1.29296 -0.5775,-0.40176 -2.3068,-1.95014 -3.8438,-3.44141 -1.5371,-1.49126 -3.1614,-2.91461 -3.6094,-3.16211 -1.8669,-1.03118 -3.1035,-2.57185 -5.0859,-6.33594 -1.6622,-3.156086 -2.3008,-5.588632 -2.3008,-8.814451 0,-2.293311 0.1156,-2.948142 0.7813,-4.34961 1.7299,-3.64155 5.0839,-6.315159 9.6582,-7.699218 1.2864,-0.389229 1.7428,-0.38437 4.0508,0.04102 1.4303,0.263616 3.2907,0.60072 4.1347,0.75 2.4404,0.431625 3.9807,1.482766 5.5723,3.802735 0.7755,1.130463 1.5201,2.190468 1.6543,2.355468 0.1341,0.165 0.4178,0.691071 0.6308,1.169922 0.48,1.079295 0.8938,0.751468 1.293,-1.02539 0.818,-3.640875 2.8257,-6.15361 6.9336,-8.681641 2.0148,-1.239903 2.7011,-1.512715 3.8184,-1.507812 z"
       id="path5123"
       inkscape:connector-curvature="0"
       sodipodi:nodetypes="ccscscccscccccsccsccccccscccccssscscscscsscsscsscsscsccscccsccssscccsscscss" />
    <path
       style="color:#000000;clip-rule:nonzero;display:inline;overflow:visible;visibility:visible;opacity:0.98000004;isolation:auto;mix-blend-mode:normal;color-interpolation:sRGB;color-interpolation-filters:linearRGB;solid-color:#000000;solid-opacity:1;fill:#d40000;fill-opacity:1;fill-rule:evenodd;stroke:none;stroke-width:1px;stroke-linecap:butt;stroke-linejoin:miter;stroke-miterlimit:4;stroke-dasharray:none;stroke-dashoffset:0;stroke-opacity:1;color-rendering:auto;image-rendering:auto;shape-rendering:auto;text-rendering:auto;enable-background:accumulate"
       d=""
       id="path5212"
       inkscape:connector-curvature="0" />
  </g>
  <g
     inkscape:groupmode="layer"
     id="layer5"
     inkscape:label="color"
     style="filter:url(#filter5165)"
     transform="translate(-1038.2995,-73.830813)">
    <path
       style="fill:#d40000;fill-rule:evenodd;stroke:#000000;stroke-width:1px;stroke-linecap:butt;stroke-linejoin:miter;stroke-opacity:1"
       d="m 1069.7321,124.68361 c -0.9821,-1.07143 -7.1428,-5.80357 -8.4821,-6.42857 -1.3393,-0.625 -7.8571,-6.07143 -9.4643,-6.96429 -1.6071,-0.89286 -6.6964,-5.44643 -7.5893,-6.16071 -0.8928,-0.71429 -2.8571,-4.46429 -3.3035,-5.08929 -0.4465,-0.624998 -2.1429,-7.589284 -2.1429,-7.589284 0,0 1.25,-5.357143 1.25,-6.517857 0,-1.160715 6.25,-6.517858 6.6964,-6.696429 0.4465,-0.178571 3.5715,-1.071429 4.5536,-1.071429 0.9821,0 3.6607,-0.267857 4.8214,0.178572 1.1607,0.446428 3.3929,1.25 4.0179,1.607143 0.625,0.357143 2.5,1.517857 2.7678,1.875 0.2679,0.357143 3.5715,4.285714 3.5715,4.285714 0,0 3.3928,-5.803571 3.75,-6.428571 0.3571,-0.625 5.0893,-3.303572 5.625,-3.392858 0.5357,-0.08929 4.1964,-1.160714 4.8214,-0.982142 0.625,0.178571 3.9286,0.446428 5.2679,1.25 1.3392,0.803571 4.0178,2.410714 4.0178,2.410714 0,0 1.6072,3.571428 1.9643,4.285714 0.3571,0.714286 0.9821,5.892857 0.9821,5.892857 l -2.2321,8.571429 -3.8393,6.160717 c 0,0 -4.6428,7.67857 -5.0893,8.03571 -0.4464,0.35714 -6.0714,6.96429 -7.0535,7.67857 -0.9822,0.71429 -3.125,4.73215 -3.125,4.73215 l -1.4286,0.26785 z"
       id="path5352"
       inkscape:connector-curvature="0" />
  </g>
  <g
     inkscape:groupmode="layer"
     id="layer6"
     inkscape:label="shadow"
     style="filter:url(#filter5220)"
     transform="translate(-1038.2995,-73.830813)" />
</svg>
